Music and the Mind
…
study_data %>%
  mutate(
    gender = factor(gender,
      levels = c(1, 2, 3, 4),
      labels = c(
        "Male",
        "Female",
        "Non-binary / third gender",
        "Prefer not to say"
      )
    )
  )

# A tibble: 99 × 53
   gender   age condition `Compatible Score` `Incongruent Score` FlankerEffect
   <fct>  <dbl> <fct>                  <dbl>               <dbl>         <dbl>
 1 Female    22 Arousal                  802                 899            97
 2 Female    21 Arousal                  601                 582           -19
 3 Female    22 Control                  622                 639            17
 4 Female    20 Control                  592                 587            -5
 5 Female    25 Arousal                  593                 651            58
 6 Female    20 Control                  665                 737            72
 7 Female    22 Arousal                  594                 633            39
 8 Female    22 Arousal                  612                 677            65
 9 Female    20 Control                   NA                  NA            23
10 Female    21 Arousal                  619                 785           166
# ℹ 89 more rows
# ℹ 47 more variables: emo3 <dbl>, emo8 <dbl>, emo12 <dbl>, emo18 <dbl>,
#   seek2 <dbl>, seek7 <dbl>, seek11 <dbl>, seek17 <dbl>, sens5 <dbl>,
#   sens10 <dbl>, sens15 <dbl>, sens20 <dbl>, soc1 <dbl>, soc6 <dbl>,
#   soc13 <dbl>, soc16 <dbl>, mood4 <dbl>, mood9 <dbl>, mood14 <dbl>,
#   mood19 <dbl>, pos1 <dbl>, pos3 <dbl>, pos5 <dbl>, pos9 <dbl>, pos10 <dbl>,
#   pos14 <dbl>, pos16 <dbl>, pos17 <dbl>, pos19 <dbl>, neg2 <dbl>, …
…
